{
	"type": "minecraft:block",
	"pools": [
		{
			"bonus_rolls": 0.0,
			"conditions": [
				{
					"condition": "minecraft:survives_explosion"
				}
			],
			"entries": [
				{
					"type": "minecraft:item",
					"name": "torch_burnout:empty_lantern"
				}
			],
			"rolls": 1.0
		}
	]
}